{
  "BurstVersion": "ed7d93ab-72ae-4d46-9fc9-027b31698d75",
  "Assemblies": [
    {
      "FullName": "Unity.Burst, Version=0.0.0.0, Culture=neutral, PublicKeyToken=null",
      "LastWriteTime": "2023-03-31T00:01:20.2296028Z"
    },
    {
      "FullName": "netstandard, Version=2.1.0.0, Culture=neutral, PublicKeyToken=cc7b13ffcd2ddd51",
      "LastWriteTime": "2022-07-19T14:31:24Z"
    },
    {
      "FullName": "mscorlib, Version=4.0.0.0, Culture=neutral, PublicKeyToken=b77a5c561934e089",
      "LastWriteTime": "2022-07-19T14:31:24Z"
    },
    {
      "FullName": "UnityEngine.CoreModule, Version=0.0.0.0, Culture=neutral, PublicKeyToken=null",
      "LastWriteTime": "2022-07-19T14:35:02Z"
    },
    {
      "FullName": "Unity.RenderPipelines.Universal.Runtime, Version=0.0.0.0, Culture=neutral, PublicKeyToken=null",
      "LastWriteTime": "2023-03-31T00:01:20.1745993Z"
    },
    {
      "FullName": "Unity.Mathematics, Version=1.0.0.0, Culture=neutral, PublicKeyToken=null",
      "LastWriteTime": "2023-03-31T00:01:19.6029988Z"
    },
    {
      "FullName": "mscorlib, Version=2.0.0.0, Culture=neutral, PublicKeyToken=b77a5c561934e089",
      "LastWriteTime": "2022-07-19T14:31:24Z"
    },
    {
      "FullName": "mscorlib, Version=0.0.0.0, Culture=neutral, PublicKeyToken=null",
      "LastWriteTime": "2022-07-19T14:31:24Z"
    }
  ],
  "Functions": [
    {
      "FullName": "Unity.Burst.Intrinsics.X86, Unity.Burst, Version=0.0.0.0, Culture=neutral, PublicKeyToken=null::DoSetCSRTrampoline(System.Int32, mscorlib, Version=4.0.0.0, Culture=neutral, PublicKeyToken=b77a5c561934e089)",
      "ModuleOptionsHash": 15221144590354301703,
      "ModuleHash": "89269d86ae79047faa082783b6bad4e3",
      "LinkName": "801E9A000BB37B05",
      "AssemblyDependencyIndices": [
        0,
        1,
        2
      ]
    },
    {
      "FullName": "Unity.Jobs.IJobForExtensions+ForJobStruct`1[[UnityEngine.Rendering.Universal.SliceCombineJob, Unity.RenderPipelines.Universal.Runtime, Version=0.0.0.0, Culture=neutral, PublicKeyToken=null]], UnityEngine.CoreModule, Version=0.0.0.0, Culture=neutral, PublicKeyToken=null::Execute(UnityEngine.Rendering.Universal.SliceCombineJob&, Unity.RenderPipelines.Universal.Runtime, Version=0.0.0.0, Culture=neutral, PublicKeyToken=null|System.IntPtr, mscorlib, Version=4.0.0.0, Culture=neutral, PublicKeyToken=b77a5c561934e089|System.IntPtr, mscorlib, Version=4.0.0.0, Culture=neutral, PublicKeyToken=b77a5c561934e089|Unity.Jobs.LowLevel.Unsafe.JobRanges&, UnityEngine.CoreModule, Version=0.0.0.0, Culture=neutral, PublicKeyToken=null|System.Int32, mscorlib, Version=4.0.0.0, Culture=neutral, PublicKeyToken=b77a5c561934e089)",
      "ModuleOptionsHash": 15221144590354301703,
      "ModuleHash": "4bf0e6cba6212bb168929717cdeb3097",
      "LinkName": "84AB01371756165C",
      "AssemblyDependencyIndices": [
        3,
        4,
        2,
        5,
        1,
        6
      ]
    },
    {
      "FullName": "Unity.Jobs.IJobForExtensions+ForJobStruct`1[[UnityEngine.Rendering.Universal.ZBinningJob, Unity.RenderPipelines.Universal.Runtime, Version=0.0.0.0, Culture=neutral, PublicKeyToken=null]], UnityEngine.CoreModule, Version=0.0.0.0, Culture=neutral, PublicKeyToken=null::Execute(UnityEngine.Rendering.Universal.ZBinningJob&, Unity.RenderPipelines.Universal.Runtime, Version=0.0.0.0, Culture=neutral, PublicKeyToken=null|System.IntPtr, mscorlib, Version=4.0.0.0, Culture=neutral, PublicKeyToken=b77a5c561934e089|System.IntPtr, mscorlib, Version=4.0.0.0, Culture=neutral, PublicKeyToken=b77a5c561934e089|Unity.Jobs.LowLevel.Unsafe.JobRanges&, UnityEngine.CoreModule, Version=0.0.0.0, Culture=neutral, PublicKeyToken=null|System.Int32, mscorlib, Version=4.0.0.0, Culture=neutral, PublicKeyToken=b77a5c561934e089)",
      "ModuleOptionsHash": 15221144590354301703,
      "ModuleHash": "7a9d2c57e46250db722432f3e53cf02f",
      "LinkName": "AE539C59A9E52E70",
      "AssemblyDependencyIndices": [
        3,
        4,
        2,
        1,
        5,
        6
      ]
    },
    {
      "FullName": "Unity.Jobs.IJobForExtensions+ForJobStruct`1[[UnityEngine.Rendering.Universal.MinMaxZJob, Unity.RenderPipelines.Universal.Runtime, Version=0.0.0.0, Culture=neutral, PublicKeyToken=null]], UnityEngine.CoreModule, Version=0.0.0.0, Culture=neutral, PublicKeyToken=null::Execute(UnityEngine.Rendering.Universal.MinMaxZJob&, Unity.RenderPipelines.Universal.Runtime, Version=0.0.0.0, Culture=neutral, PublicKeyToken=null|System.IntPtr, mscorlib, Version=4.0.0.0, Culture=neutral, PublicKeyToken=b77a5c561934e089|System.IntPtr, mscorlib, Version=4.0.0.0, Culture=neutral, PublicKeyToken=b77a5c561934e089|Unity.Jobs.LowLevel.Unsafe.JobRanges&, UnityEngine.CoreModule, Version=0.0.0.0, Culture=neutral, PublicKeyToken=null|System.Int32, mscorlib, Version=4.0.0.0, Culture=neutral, PublicKeyToken=b77a5c561934e089)",
      "ModuleOptionsHash": 15221144590354301703,
      "ModuleHash": "7de08c6ec493f02a1a1e611d4d45b2cb",
      "LinkName": "A03F6A9F19CA13EF",
      "AssemblyDependencyIndices": [
        3,
        4,
        2,
        5,
        1,
        6
      ]
    },
    {
      "FullName": "Unity.Jobs.IJobExtensions+JobStruct`1[[UnityEngine.Rendering.Universal.RadixSortJob, Unity.RenderPipelines.Universal.Runtime, Version=0.0.0.0, Culture=neutral, PublicKeyToken=null]], UnityEngine.CoreModule, Version=0.0.0.0, Culture=neutral, PublicKeyToken=null::Execute(UnityEngine.Rendering.Universal.RadixSortJob&, Unity.RenderPipelines.Universal.Runtime, Version=0.0.0.0, Culture=neutral, PublicKeyToken=null|System.IntPtr, mscorlib, Version=4.0.0.0, Culture=neutral, PublicKeyToken=b77a5c561934e089|System.IntPtr, mscorlib, Version=4.0.0.0, Culture=neutral, PublicKeyToken=b77a5c561934e089|Unity.Jobs.LowLevel.Unsafe.JobRanges&, UnityEngine.CoreModule, Version=0.0.0.0, Culture=neutral, PublicKeyToken=null|System.Int32, mscorlib, Version=4.0.0.0, Culture=neutral, PublicKeyToken=b77a5c561934e089)",
      "ModuleOptionsHash": 15221144590354301703,
      "ModuleHash": "4ad9e936befc6e57ae72549f71a8f376",
      "LinkName": "61C3A28A28E7C7BF",
      "AssemblyDependencyIndices": [
        3,
        4,
        2,
        1,
        6
      ]
    },
    {
      "FullName": "Unity.Jobs.IJobForExtensions+ForJobStruct`1[[UnityEngine.Rendering.Universal.SliceCullingJob, Unity.RenderPipelines.Universal.Runtime, Version=0.0.0.0, Culture=neutral, PublicKeyToken=null]], UnityEngine.CoreModule, Version=0.0.0.0, Culture=neutral, PublicKeyToken=null::Execute(UnityEngine.Rendering.Universal.SliceCullingJob&, Unity.RenderPipelines.Universal.Runtime, Version=0.0.0.0, Culture=neutral, PublicKeyToken=null|System.IntPtr, mscorlib, Version=4.0.0.0, Culture=neutral, PublicKeyToken=b77a5c561934e089|System.IntPtr, mscorlib, Version=4.0.0.0, Culture=neutral, PublicKeyToken=b77a5c561934e089|Unity.Jobs.LowLevel.Unsafe.JobRanges&, UnityEngine.CoreModule, Version=0.0.0.0, Culture=neutral, PublicKeyToken=null|System.Int32, mscorlib, Version=4.0.0.0, Culture=neutral, PublicKeyToken=b77a5c561934e089)",
      "ModuleOptionsHash": 15221144590354301703,
      "ModuleHash": "40e726b6cf245ceb03fefd84b3048e0e",
      "LinkName": "E194DDA76BFCD7EC",
      "AssemblyDependencyIndices": [
        3,
        4,
        2,
        5,
        1,
        6
      ]
    },
    {
      "FullName": "Unity.Jobs.IJobForExtensions+ForJobStruct`1[[UnityEngine.Rendering.Universal.ReorderJob`1[[UnityEngine.Rendering.VisibleLight, UnityEngine.CoreModule, Version=0.0.0.0, Culture=neutral, PublicKeyToken=null]], Unity.RenderPipelines.Universal.Runtime, Version=0.0.0.0, Culture=neutral, PublicKeyToken=null]], UnityEngine.CoreModule, Version=0.0.0.0, Culture=neutral, PublicKeyToken=null::Execute(UnityEngine.Rendering.Universal.ReorderJob`1[[UnityEngine.Rendering.VisibleLight, UnityEngine.CoreModule, Version=0.0.0.0, Culture=neutral, PublicKeyToken=null]]&, Unity.RenderPipelines.Universal.Runtime, Version=0.0.0.0, Culture=neutral, PublicKeyToken=null|System.IntPtr, mscorlib, Version=4.0.0.0, Culture=neutral, PublicKeyToken=b77a5c561934e089|System.IntPtr, mscorlib, Version=4.0.0.0, Culture=neutral, PublicKeyToken=b77a5c561934e089|Unity.Jobs.LowLevel.Unsafe.JobRanges&, UnityEngine.CoreModule, Version=0.0.0.0, Culture=neutral, PublicKeyToken=null|System.Int32, mscorlib, Version=4.0.0.0, Culture=neutral, PublicKeyToken=b77a5c561934e089)",
      "ModuleOptionsHash": 15221144590354301703,
      "ModuleHash": "c8d52169f5249771a10ff2d0665e8e37",
      "LinkName": "D61D1C0A6F02814B",
      "AssemblyDependencyIndices": [
        3,
        4,
        2,
        6,
        1
      ]
    },
    {
      "FullName": "UnityEngine.Jobs.IJobParallelForTransformExtensions+TransformParallelForLoopStruct`1[[UnityEngine.Rendering.Universal.DecalUpdateCachedSystem+UpdateTransformsJob, Unity.RenderPipelines.Universal.Runtime, Version=0.0.0.0, Culture=neutral, PublicKeyToken=null]], UnityEngine.CoreModule, Version=0.0.0.0, Culture=neutral, PublicKeyToken=null::Execute(UnityEngine.Rendering.Universal.DecalUpdateCachedSystem+UpdateTransformsJob&, Unity.RenderPipelines.Universal.Runtime, Version=0.0.0.0, Culture=neutral, PublicKeyToken=null|System.IntPtr, mscorlib, Version=4.0.0.0, Culture=neutral, PublicKeyToken=b77a5c561934e089|System.IntPtr, mscorlib, Version=4.0.0.0, Culture=neutral, PublicKeyToken=b77a5c561934e089|Unity.Jobs.LowLevel.Unsafe.JobRanges&, UnityEngine.CoreModule, Version=0.0.0.0, Culture=neutral, PublicKeyToken=null|System.Int32, mscorlib, Version=4.0.0.0, Culture=neutral, PublicKeyToken=b77a5c561934e089)",
      "ModuleOptionsHash": 15221144590354301703,
      "ModuleHash": "88aeab4e1dcc3868a742f714f8c91d9a",
      "LinkName": "15301ED6F7D48D74",
      "AssemblyDependencyIndices": [
        3,
        4,
        2,
        1,
        5,
        6
      ]
    },
    {
      "FullName": "Unity.Jobs.IJobForExtensions+ForJobStruct`1[[UnityEngine.Rendering.Universal.ReorderJob`1[[UnityEngine.Rendering.Universal.LightMinMaxZ, Unity.RenderPipelines.Universal.Runtime, Version=0.0.0.0, Culture=neutral, PublicKeyToken=null]], Unity.RenderPipelines.Universal.Runtime, Version=0.0.0.0, Culture=neutral, PublicKeyToken=null]], UnityEngine.CoreModule, Version=0.0.0.0, Culture=neutral, PublicKeyToken=null::Execute(UnityEngine.Rendering.Universal.ReorderJob`1[[UnityEngine.Rendering.Universal.LightMinMaxZ, Unity.RenderPipelines.Universal.Runtime, Version=0.0.0.0, Culture=neutral, PublicKeyToken=null]]&, Unity.RenderPipelines.Universal.Runtime, Version=0.0.0.0, Culture=neutral, PublicKeyToken=null|System.IntPtr, mscorlib, Version=4.0.0.0, Culture=neutral, PublicKeyToken=b77a5c561934e089|System.IntPtr, mscorlib, Version=4.0.0.0, Culture=neutral, PublicKeyToken=b77a5c561934e089|Unity.Jobs.LowLevel.Unsafe.JobRanges&, UnityEngine.CoreModule, Version=0.0.0.0, Culture=neutral, PublicKeyToken=null|System.Int32, mscorlib, Version=4.0.0.0, Culture=neutral, PublicKeyToken=b77a5c561934e089)",
      "ModuleOptionsHash": 15221144590354301703,
      "ModuleHash": "f87c8460994c2d7d595f93d29349ae4b",
      "LinkName": "5FCDD8F068DD2902",
      "AssemblyDependencyIndices": [
        3,
        4,
        2,
        1,
        6
      ]
    },
    {
      "FullName": "Unity.Jobs.IJobForExtensions+ForJobStruct`1[[UnityEngine.Rendering.Universal.LightExtractionJob, Unity.RenderPipelines.Universal.Runtime, Version=0.0.0.0, Culture=neutral, PublicKeyToken=null]], UnityEngine.CoreModule, Version=0.0.0.0, Culture=neutral, PublicKeyToken=null::Execute(UnityEngine.Rendering.Universal.LightExtractionJob&, Unity.RenderPipelines.Universal.Runtime, Version=0.0.0.0, Culture=neutral, PublicKeyToken=null|System.IntPtr, mscorlib, Version=4.0.0.0, Culture=neutral, PublicKeyToken=b77a5c561934e089|System.IntPtr, mscorlib, Version=4.0.0.0, Culture=neutral, PublicKeyToken=b77a5c561934e089|Unity.Jobs.LowLevel.Unsafe.JobRanges&, UnityEngine.CoreModule, Version=0.0.0.0, Culture=neutral, PublicKeyToken=null|System.Int32, mscorlib, Version=4.0.0.0, Culture=neutral, PublicKeyToken=b77a5c561934e089)",
      "ModuleOptionsHash": 15221144590354301703,
      "ModuleHash": "bbb416e1306b84887f1860496e4d54bf",
      "LinkName": "BE03A27DBA873915",
      "AssemblyDependencyIndices": [
        3,
        4,
        7,
        2,
        5,
        1,
        6
      ]
    },
    {
      "FullName": "Unity.Burst.Intrinsics.X86, Unity.Burst, Version=0.0.0.0, Culture=neutral, PublicKeyToken=null::DoGetCSRTrampoline()",
      "ModuleOptionsHash": 15221144590354301703,
      "ModuleHash": "e6b2fa7d87956b9de9c34a8ba69199ed",
      "LinkName": "CDCA4A5193BE5947",
      "AssemblyDependencyIndices": [
        0,
        1,
        2
      ]
    },
    {
      "FullName": "Unity.Jobs.IJobExtensions+JobStruct`1[[UnityEngine.Rendering.Universal.DecalCreateDrawCallSystem+DrawCallJob, Unity.RenderPipelines.Universal.Runtime, Version=0.0.0.0, Culture=neutral, PublicKeyToken=null]], UnityEngine.CoreModule, Version=0.0.0.0, Culture=neutral, PublicKeyToken=null::Execute(UnityEngine.Rendering.Universal.DecalCreateDrawCallSystem+DrawCallJob&, Unity.RenderPipelines.Universal.Runtime, Version=0.0.0.0, Culture=neutral, PublicKeyToken=null|System.IntPtr, mscorlib, Version=4.0.0.0, Culture=neutral, PublicKeyToken=b77a5c561934e089|System.IntPtr, mscorlib, Version=4.0.0.0, Culture=neutral, PublicKeyToken=b77a5c561934e089|Unity.Jobs.LowLevel.Unsafe.JobRanges&, UnityEngine.CoreModule, Version=0.0.0.0, Culture=neutral, PublicKeyToken=null|System.Int32, mscorlib, Version=4.0.0.0, Culture=neutral, PublicKeyToken=b77a5c561934e089)",
      "ModuleOptionsHash": 15221144590354301703,
      "ModuleHash": "8e4f1817ffe545e14043eef75eed5a47",
      "LinkName": "76EDAD8C20800D03",
      "AssemblyDependencyIndices": [
        3,
        4,
        1,
        2,
        5,
        6
      ]
    }
  ]
}