%YAML 1.1
%TAG !u! tag:unity3d.com,2011:
--- !u!162 &1
EditorUserSettings:
  m_ObjectHideFlags: 0
  serializedVersion: 4
  m_ConfigSettings:
    RecentlyUsedSceneGuid-0:
      value: 5a08575f5207595a0f5d59741173094444164f7d7d2a23317c7a4465bbe1646d
      flags: 0
    RecentlyUsedSceneGuid-1:
      value: 070106500454590e585f087045720d444e16497f287e23627e7f1e64bab0673c
      flags: 0
    RecentlyUsedSceneGuid-2:
      value: 5a07505706055003555e0f7a16740c444116402c757d2068292a4f63e1b9323d
      flags: 0
    RecentlyUsedSceneGuid-3:
      value: 500400045457085f5b0a5d7349260844154e19782e7c7264757e1962b6b66268
      flags: 0
    RecentlyUsedSceneGuid-4:
      value: 5003555e5d5450590e0d0a7a49200944104f4e2e797927697c784c65bbb4656a
      flags: 0
    vcSharedLogLevel:
      value: 0d5e400f0650
      flags: 0
  m_VCAutomaticAdd: 1
  m_VCDebugCom: 0
  m_VCDebugCmd: 0
  m_VCDebugOut: 0
  m_SemanticMergeMode: 2
  m_DesiredImportWorkerCount: 4
  m_StandbyImportWorkerCount: 2
  m_IdleImportWorkerShutdownDelay: 60000
  m_VCShowFailedCheckout: 1
  m_VCOverwriteFailedCheckoutAssets: 1
  m_VCProjectOverlayIcons: 1
  m_VCHierarchyOverlayIcons: 1
  m_VCOtherOverlayIcons: 1
  m_VCAllowAsyncUpdate: 1
  m_ArtifactGarbageCollection: 1
