Library\Bee\artifacts\mvdfrm\Unity.Burst.Editor.ref.dll_E2F92DAB6C167CC9.mvfrm
Library\Bee\artifacts\mvdfrm\Unity.Burst.ref.dll_F30DFA20C0DD1968.mvfrm
Library\Bee\artifacts\mvdfrm\Unity.Mathematics.Editor.ref.dll_9A20CFD48BC11F43.mvfrm
Library\Bee\artifacts\mvdfrm\Unity.Mathematics.ref.dll_E8EFDB1B8D5C174E.mvfrm
Library\Bee\artifacts\mvdfrm\Unity.PlasticSCM.Editor.ref.dll_257AEB342BE77856.mvfrm
Library\Bee\artifacts\mvdfrm\Unity.RenderPipeline.Universal.ShaderLibrary.ref.dll_5436F99F8BDCED8B.mvfrm
Library\Bee\artifacts\mvdfrm\Unity.RenderPipelines.Core.Editor.ref.dll_46EB9B6930B27991.mvfrm
Library\Bee\artifacts\mvdfrm\Unity.RenderPipelines.Core.Runtime.ref.dll_CE6A42C97D96EB0A.mvfrm
Library\Bee\artifacts\mvdfrm\Unity.RenderPipelines.Core.ShaderLibrary.ref.dll_7F2C410A434F5518.mvfrm
Library\Bee\artifacts\mvdfrm\Unity.RenderPipelines.ShaderGraph.ShaderGraphLibrary.ref.dll_1A2083B43FB0BF18.mvfrm
Library\Bee\artifacts\mvdfrm\Unity.RenderPipelines.Universal.Editor.ref.dll_0FF7AC68384616B1.mvfrm
Library\Bee\artifacts\mvdfrm\Unity.RenderPipelines.Universal.Runtime.ref.dll_5400A10AF7CC6BEA.mvfrm
Library\Bee\artifacts\mvdfrm\Unity.RenderPipelines.Universal.Shaders.ref.dll_9468B054363B0720.mvfrm
Library\Bee\artifacts\mvdfrm\Unity.Rider.Editor.ref.dll_9B5591808ABA37AF.mvfrm
Library\Bee\artifacts\mvdfrm\Unity.Searcher.Editor.ref.dll_12B7E1785E41BE0E.mvfrm
Library\Bee\artifacts\mvdfrm\Unity.Services.Core.Analytics.ref.dll_EDA1682A714EA6BF.mvfrm
Library\Bee\artifacts\mvdfrm\Unity.Services.Core.Environments.ref.dll_7E0AC2CDE81D9C6D.mvfrm
Library\Bee\artifacts\mvdfrm\Unity.Services.Core.ref.dll_131AC9C5EC6E6517.mvfrm
Library\Bee\artifacts\mvdfrm\Unity.ShaderGraph.Editor.ref.dll_0F50152946DB09D0.mvfrm
Library\Bee\artifacts\mvdfrm\Unity.TextMeshPro.Editor.ref.dll_159E061D77A10B86.mvfrm
Library\Bee\artifacts\mvdfrm\Unity.TextMeshPro.ref.dll_84A4293DBDD182DB.mvfrm
Library\Bee\artifacts\mvdfrm\Unity.Timeline.Editor.ref.dll_0D3D3C0B73557612.mvfrm
Library\Bee\artifacts\mvdfrm\Unity.Timeline.ref.dll_621CDDF9C514DF8F.mvfrm
Library\Bee\artifacts\mvdfrm\Unity.VSCode.Editor.ref.dll_3628369EB48E4C19.mvfrm
Library\Bee\artifacts\mvdfrm\Unity.VisualScripting.Core.Editor.ref.dll_EDC8690F57C5BDFD.mvfrm
Library\Bee\artifacts\mvdfrm\Unity.VisualScripting.Core.ref.dll_D75DF4EA1AFE54F4.mvfrm
Library\Bee\artifacts\mvdfrm\Unity.VisualScripting.Flow.Editor.ref.dll_6AF951BE66A4493E.mvfrm
Library\Bee\artifacts\mvdfrm\Unity.VisualScripting.Flow.ref.dll_1E6ED5409D07C9A3.mvfrm
Library\Bee\artifacts\mvdfrm\Unity.VisualScripting.SettingsProvider.Editor.ref.dll_A1A44354E0B583A8.mvfrm
Library\Bee\artifacts\mvdfrm\Unity.VisualScripting.Shared.Editor.ref.dll_9669F6EBFF6DFFB7.mvfrm
Library\Bee\artifacts\mvdfrm\Unity.VisualScripting.State.Editor.ref.dll_E03858E727F23F6F.mvfrm
Library\Bee\artifacts\mvdfrm\Unity.VisualScripting.State.ref.dll_D91762B7076BE462.mvfrm
Library\Bee\artifacts\mvdfrm\Unity.VisualStudio.Editor.ref.dll_3A975DBA53ABA4AD.mvfrm
Library\Bee\artifacts\mvdfrm\Unity.XR.Management.Editor.ref.dll_7BA8CC5454F13E52.mvfrm
Library\Bee\artifacts\mvdfrm\Unity.XR.Management.ref.dll_404BC0C35449934F.mvfrm
Library\Bee\artifacts\mvdfrm\Unity.XR.Oculus.Editor.ref.dll_EC6E1675CFAEEAAC.mvfrm
Library\Bee\artifacts\mvdfrm\Unity.XR.Oculus.ref.dll_431DEB9238966955.mvfrm
Library\Bee\artifacts\mvdfrm\UnityEditor.SpatialTracking.ref.dll_8911EA67839E93F0.mvfrm
Library\Bee\artifacts\mvdfrm\UnityEditor.UI.ref.dll_4C98D3F7040CD4F5.mvfrm
Library\Bee\artifacts\mvdfrm\UnityEditor.XR.LegacyInputHelpers.ref.dll_3F12D550ED6E7C7D.mvfrm
Library\Bee\artifacts\mvdfrm\UnityEngine.SpatialTracking.ref.dll_1552DC8EFC971715.mvfrm
Library\Bee\artifacts\mvdfrm\UnityEngine.UI.ref.dll_08FEAA520A2EFD60.mvfrm
Library\Bee\artifacts\mvdfrm\UnityEngine.XR.LegacyInputHelpers.ref.dll_FFA26A0728B3CF82.mvfrm
Library\Bee\artifacts\mvdfrm\UnityEditor.CoreModule.dll_3D981A9FCB5BAB0A.mvfrm
Library\Bee\artifacts\mvdfrm\UnityEditor.DeviceSimulatorModule.dll_4FF22F00FEE516D7.mvfrm
Library\Bee\artifacts\mvdfrm\UnityEditor.DiagnosticsModule.dll_C9355E4F08CD3B65.mvfrm
Library\Bee\artifacts\mvdfrm\UnityEditor.dll_EE10BA6634BB506B.mvfrm
Library\Bee\artifacts\mvdfrm\UnityEditor.GraphViewModule.dll_4C03E30D815D649C.mvfrm
Library\Bee\artifacts\mvdfrm\UnityEditor.PackageManagerUIModule.dll_D539C538EB7F0FE6.mvfrm
Library\Bee\artifacts\mvdfrm\UnityEditor.QuickSearchModule.dll_5444DF5C61A437BE.mvfrm
Library\Bee\artifacts\mvdfrm\UnityEditor.SceneTemplateModule.dll_F451E124637AF9FF.mvfrm
Library\Bee\artifacts\mvdfrm\UnityEditor.TextCoreFontEngineModule.dll_356CD117CCD84948.mvfrm
Library\Bee\artifacts\mvdfrm\UnityEditor.TextCoreTextEngineModule.dll_7D5507895C5C0266.mvfrm
Library\Bee\artifacts\mvdfrm\UnityEditor.UIBuilderModule.dll_A08C9029F415DDD0.mvfrm
Library\Bee\artifacts\mvdfrm\UnityEditor.UIElementsModule.dll_01120B439ABAE206.mvfrm
Library\Bee\artifacts\mvdfrm\UnityEditor.UIElementsSamplesModule.dll_881E95A3507581C7.mvfrm
Library\Bee\artifacts\mvdfrm\UnityEditor.UIServiceModule.dll_D97EA18CDD4D2DEA.mvfrm
Library\Bee\artifacts\mvdfrm\UnityEditor.UnityConnectModule.dll_B81AB877C07BDEC0.mvfrm
Library\Bee\artifacts\mvdfrm\UnityEngine.AccessibilityModule.dll_26F74CBB63F1219C.mvfrm
Library\Bee\artifacts\mvdfrm\UnityEngine.AIModule.dll_6467E265922B7C1E.mvfrm
Library\Bee\artifacts\mvdfrm\UnityEngine.AndroidJNIModule.dll_7F5AF416E3DA50DC.mvfrm
Library\Bee\artifacts\mvdfrm\UnityEngine.AnimationModule.dll_1A895F365BBA3942.mvfrm
Library\Bee\artifacts\mvdfrm\UnityEngine.ARModule.dll_1DDAA768EF48DAE7.mvfrm
Library\Bee\artifacts\mvdfrm\UnityEngine.AssetBundleModule.dll_982E124DC40AECB0.mvfrm
Library\Bee\artifacts\mvdfrm\UnityEngine.AudioModule.dll_F8B69C25DF2879B4.mvfrm
Library\Bee\artifacts\mvdfrm\UnityEngine.ClothModule.dll_5F9EF920B9455898.mvfrm
Library\Bee\artifacts\mvdfrm\UnityEngine.ClusterInputModule.dll_37B72D8D7203B186.mvfrm
Library\Bee\artifacts\mvdfrm\UnityEngine.ClusterRendererModule.dll_559EF1726EA0245B.mvfrm
Library\Bee\artifacts\mvdfrm\UnityEngine.CoreModule.dll_60B8EDF273611635.mvfrm
Library\Bee\artifacts\mvdfrm\UnityEngine.CrashReportingModule.dll_161F388103231CED.mvfrm
Library\Bee\artifacts\mvdfrm\UnityEngine.DirectorModule.dll_BC8360FAD83AC992.mvfrm
Library\Bee\artifacts\mvdfrm\UnityEngine.dll_20B5013E932EDD50.mvfrm
Library\Bee\artifacts\mvdfrm\UnityEngine.DSPGraphModule.dll_C1D4C2644A9B9AB3.mvfrm
Library\Bee\artifacts\mvdfrm\UnityEngine.GameCenterModule.dll_A9A83E31AA1B41CD.mvfrm
Library\Bee\artifacts\mvdfrm\UnityEngine.GIModule.dll_FCA42B732DDA6438.mvfrm
Library\Bee\artifacts\mvdfrm\UnityEngine.GridModule.dll_3E2A09E08BB5AC2C.mvfrm
Library\Bee\artifacts\mvdfrm\UnityEngine.HotReloadModule.dll_9BD21D3C36ED54C4.mvfrm
Library\Bee\artifacts\mvdfrm\UnityEngine.ImageConversionModule.dll_C190EF22F0C4DC4F.mvfrm
Library\Bee\artifacts\mvdfrm\UnityEngine.IMGUIModule.dll_31163B8CA55A0D95.mvfrm
Library\Bee\artifacts\mvdfrm\UnityEngine.InputLegacyModule.dll_29732D6C5BFCA2A1.mvfrm
Library\Bee\artifacts\mvdfrm\UnityEngine.InputModule.dll_5F2C63D655609E58.mvfrm
Library\Bee\artifacts\mvdfrm\UnityEngine.JSONSerializeModule.dll_870ED5F7632C8226.mvfrm
Library\Bee\artifacts\mvdfrm\UnityEngine.LocalizationModule.dll_7603F7E0097FA47F.mvfrm
Library\Bee\artifacts\mvdfrm\UnityEngine.ParticleSystemModule.dll_693181CD7134A87B.mvfrm
Library\Bee\artifacts\mvdfrm\UnityEngine.PerformanceReportingModule.dll_2D44669F52821FF4.mvfrm
Library\Bee\artifacts\mvdfrm\UnityEngine.Physics2DModule.dll_672F4F26FCB730D7.mvfrm
Library\Bee\artifacts\mvdfrm\UnityEngine.PhysicsModule.dll_A4ACF9F1CAD32305.mvfrm
Library\Bee\artifacts\mvdfrm\UnityEngine.ProfilerModule.dll_EEC99A317194509F.mvfrm
Library\Bee\artifacts\mvdfrm\UnityEngine.RuntimeInitializeOnLoadManagerInitializerModule.dll_5B84C34FE534CFA0.mvfrm
Library\Bee\artifacts\mvdfrm\UnityEngine.ScreenCaptureModule.dll_A0F6837C7798AE88.mvfrm
Library\Bee\artifacts\mvdfrm\UnityEngine.SharedInternalsModule.dll_45A22DF867F2D79F.mvfrm
Library\Bee\artifacts\mvdfrm\UnityEngine.SpriteMaskModule.dll_92D4B0C1CB8AD747.mvfrm
Library\Bee\artifacts\mvdfrm\UnityEngine.SpriteShapeModule.dll_B18F3FA879AD24BA.mvfrm
Library\Bee\artifacts\mvdfrm\UnityEngine.StreamingModule.dll_CF1E4C86AB41F080.mvfrm
Library\Bee\artifacts\mvdfrm\UnityEngine.SubstanceModule.dll_ABC960CFF694EE8E.mvfrm
Library\Bee\artifacts\mvdfrm\UnityEngine.SubsystemsModule.dll_FD82172399D2BF5A.mvfrm
Library\Bee\artifacts\mvdfrm\UnityEngine.TerrainModule.dll_BEF37560A0916BF3.mvfrm
Library\Bee\artifacts\mvdfrm\UnityEngine.TerrainPhysicsModule.dll_69AC2AA08A77A308.mvfrm
Library\Bee\artifacts\mvdfrm\UnityEngine.TextCoreFontEngineModule.dll_B3CC4C6ADFD60813.mvfrm
Library\Bee\artifacts\mvdfrm\UnityEngine.TextCoreTextEngineModule.dll_FBB482DC6F59C131.mvfrm
Library\Bee\artifacts\mvdfrm\UnityEngine.TextRenderingModule.dll_CA35F5872ED02E7D.mvfrm
Library\Bee\artifacts\mvdfrm\UnityEngine.TilemapModule.dll_5DEFDCE1B84E4CFC.mvfrm
Library\Bee\artifacts\mvdfrm\UnityEngine.TLSModule.dll_62B6FF398C59AA99.mvfrm
Library\Bee\artifacts\mvdfrm\UnityEngine.UIElementsModule.dll_01C0788B9CFEFB51.mvfrm
Library\Bee\artifacts\mvdfrm\UnityEngine.UIElementsNativeModule.dll_1FB379CE5CF78008.mvfrm
Library\Bee\artifacts\mvdfrm\UnityEngine.UIModule.dll_5FDB8092EE7281CA.mvfrm
Library\Bee\artifacts\mvdfrm\UnityEngine.UmbraModule.dll_738B483E6C4F2527.mvfrm
Library\Bee\artifacts\mvdfrm\UnityEngine.UNETModule.dll_F35F35DBC0700BAE.mvfrm
Library\Bee\artifacts\mvdfrm\UnityEngine.UnityAnalyticsModule.dll_88D0F2971D5BFA77.mvfrm
Library\Bee\artifacts\mvdfrm\UnityEngine.UnityConnectModule.dll_A57A3C86BB03DF6B.mvfrm
Library\Bee\artifacts\mvdfrm\UnityEngine.UnityCurlModule.dll_4DA60067CBCE2B2F.mvfrm
Library\Bee\artifacts\mvdfrm\UnityEngine.UnityTestProtocolModule.dll_43E14B95AA70D71D.mvfrm
Library\Bee\artifacts\mvdfrm\UnityEngine.UnityWebRequestAssetBundleModule.dll_4FE0A27388609E88.mvfrm
Library\Bee\artifacts\mvdfrm\UnityEngine.UnityWebRequestAudioModule.dll_A540BA7DD8ECEA8C.mvfrm
Library\Bee\artifacts\mvdfrm\UnityEngine.UnityWebRequestModule.dll_D32FF6CCFBB976CE.mvfrm
Library\Bee\artifacts\mvdfrm\UnityEngine.UnityWebRequestTextureModule.dll_6BB4B63E191F89E1.mvfrm
Library\Bee\artifacts\mvdfrm\UnityEngine.UnityWebRequestWWWModule.dll_C676C8385F197D9D.mvfrm
Library\Bee\artifacts\mvdfrm\UnityEngine.VehiclesModule.dll_34465A7A5264992D.mvfrm
Library\Bee\artifacts\mvdfrm\UnityEngine.VFXModule.dll_E39597A862C71406.mvfrm
Library\Bee\artifacts\mvdfrm\UnityEngine.VideoModule.dll_1DC02090A1BA9559.mvfrm
Library\Bee\artifacts\mvdfrm\UnityEngine.VirtualTexturingModule.dll_44402E3D35A60093.mvfrm
Library\Bee\artifacts\mvdfrm\UnityEngine.VRModule.dll_B2ADA718902D0742.mvfrm
Library\Bee\artifacts\mvdfrm\UnityEngine.WindModule.dll_D707C91B0497949E.mvfrm
Library\Bee\artifacts\mvdfrm\UnityEngine.XRModule.dll_E56C6A1D196754A0.mvfrm
Library\Bee\artifacts\mvdfrm\Unity.Burst.Cecil.dll_1621F64E3F5451BA.mvfrm
Library\Bee\artifacts\mvdfrm\Unity.Burst.Cecil.Mdb.dll_2A199FE6D4893377.mvfrm
Library\Bee\artifacts\mvdfrm\Unity.Burst.Cecil.Pdb.dll_416C1856533E34FA.mvfrm
Library\Bee\artifacts\mvdfrm\Unity.Burst.Cecil.Rocks.dll_E068E71B8654785A.mvfrm
Library\Bee\artifacts\mvdfrm\Unity.Burst.Unsafe.dll_5390AE2287B3B0B9.mvfrm
Library\Bee\artifacts\mvdfrm\Unity.VisualScripting.Antlr3.Runtime.dll_8812644C3A33A701.mvfrm